Ramen World
…
  # create new variable named "continent"
ramen_ratings <- ramen_ratings %>%
  mutate(continent = case_when(
    country %in% asia ~ "Asia",
    country %in% europe ~ "Europe",
    country %in% oceania ~ "Oceania",
    country %in% america ~ "America",
    country %in% africa ~ "Africa")) 

get_ramen_rating() function

This function will return a tibble including 3180 rows and 6 columns, as shown below:

# A tibble: 3,180 × 7
   review_number brand           variety             style country stars conti…¹
           <dbl> <chr>           <chr>               <chr> <chr>   <dbl> <chr>  
 1          3180 Yum Yum         Tem Tem Tom Yum Mo… Cup   Thaila…  3.75 Asia   
 2          3179 Nagatanien      tom Yum Kung Rice … Pack  Japan    2    Asia   
 3          3178 Acecook         Kelp Broth Shio Ra… Cup   Japan    2.5  Asia   
 4          3177 Maison de Coree Ramen Gout Coco Po… Cup   France   3.75 Europe 
 5          3176 Maruchan        Gotsumori Shio Yak… Tray  Japan    5    Asia   
 6          3175 Myojo           Chukazanmai Tantan… Cup   Japan    3.5  Asia   
 7          3174 TIEasy          Sesame Sauce Handm… Pack  Taiwan   3.75 Asia   
 8          3173 Sapporo Ichiban Momosan Ramen Tonk… Pack  United…  5    America
 9          3172 Samlip          Hi-Myon Katsuo Udon Pack  Republ…  3.5  <NA>   
10          3171 Doll            Bowl Noodle Satay … Bowl  China    4.25 Asia   
# … with 3,170 more rows, and abbreviated variable name ¹​continent
…
